2.3 {tidyr} Paketi ile Verilerin Düzenlenmesi | R ile Ekonometri
…
pivot_longer(tr_veri, 
             cols = c(`y2005`, `y2010`, `y2015`), 
             names_to = "yil", 
             values_to = "olcum")

## # A tibble: 36 × 5
##    il       plaka degisken   yil       olcum
##    <chr>    <dbl> <chr>      <chr>     <dbl>
##  1 Istanbul    34 GDPpc      y2005    16749 
##  2 Istanbul    34 GDPpc      y2010    26253 
##  3 Istanbul    34 GDPpc      y2015    49773 
##  4 Istanbul    34 RGDPpc     y2005    13986 
##  5 Istanbul    34 RGDPpc     y2010    14384 
##  6 Istanbul    34 RGDPpc     y2015    18602.
##  7 Istanbul    34 GDPpc_USD  y2005    12428 
##  8 Istanbul    34 GDPpc_USD  y2010    17480 
##  9 Istanbul    34 GDPpc_USD  y2015    18343 
## 10 Istanbul    34 population y2005 12000000 
## # ℹ 26 more rows

Bu veri setinde satırlarda değişkenler var. Ayrıca yil değişkeninin önünde “y” karakteri var. Bunu aşağıdaki gibi düzeltebiliriz:

tr_veri_uzun <- pivot_longer(tr_veri, 
                             cols = c(`y2005`, `y2010`, `y2015`), 
                             names_to = "yil", 
                             values_to = "olcum",
                             names_prefix = "y"
                             )
tr_veri_uzun

## # A tibble: 36 × 5
##    il       plaka degisken   yil       olcum
##    <chr>    <dbl> <chr>      <chr>     <dbl>
##  1 Istanbul    34 GDPpc      2005     16749 
##  2 Istanbul    34 GDPpc      2010     26253 
##  3 Istanbul    34 GDPpc      2015     49773 
##  4 Istanbul    34 RGDPpc     2005     13986 
##  5 Istanbul    34 RGDPpc     2010     14384 
##  6 Istanbul    34 RGDPpc     2015     18602.
##  7 Istanbul    34 GDPpc_USD  2005     12428 
##  8 Istanbul    34 GDPpc_USD  2010     17480 
##  9 Istanbul    34 GDPpc_USD  2015     18343 
## 10 Istanbul    34 population 2005  12000000 
## # ℹ 26 more rows
…
