2.4 {dplyr} Paketi ile Verilerin Manipülasyonu | R ile Ekonometri
…
select() fonksiyonu

Sütunlardan (değişkenlerden) hareketle yeni bir tablo (tibble) oluşturmak istersek dplyr::select() fonksiyonunu kullanabiliriz.

*Örnek mtcars veri setinde mpg, cyl, hp değişkenlerinden oluşan bir tablo oluştur

mtcars

## # A tibble: 32 × 11
##      mpg   cyl  disp    hp  drat    wt  qsec    vs    am  gear  carb
##    <dbl> <int> <dbl> <int> <dbl> <dbl> <dbl> <int> <int> <int> <int>
##  1  21       6  160    110  3.9   2.62  16.5     0     1     4     4
##  2  21       6  160    110  3.9   2.88  17.0     0     1     4     4
##  3  22.8     4  108     93  3.85  2.32  18.6     1     1     4     1
##  4  21.4     6  258    110  3.08  3.22  19.4     1     0     3     1
##  5  18.7     8  360    175  3.15  3.44  17.0     0     0     3     2
##  6  18.1     6  225    105  2.76  3.46  20.2     1     0     3     1
##  7  14.3     8  360    245  3.21  3.57  15.8     0     0     3     4
##  8  24.4     4  147.    62  3.69  3.19  20       1     0     4     2
##  9  22.8     4  141.    95  3.92  3.15  22.9     1     0     4     2
## 10  19.2     6  168.   123  3.92  3.44  18.3     1     0     4     4
## # ℹ 22 more rows

# dplyr::select() can clash with MASS::select()
library(dplyr)
mtcars2 <- dplyr::select(mtcars, mpg, cyl, hp)
mtcars2

## # A tibble: 32 × 3
##      mpg   cyl    hp
##    <dbl> <int> <int>
##  1  21       6   110
##  2  21       6   110
##  3  22.8     4    93
##  4  21.4     6   110
##  5  18.7     8   175
##  6  18.1     6   105
##  7  14.3     8   245
##  8  24.4     4    62
##  9  22.8     4    95
## 10  19.2     6   123
## # ℹ 22 more rows
…
Veri setinin satırlarının (gözlemlerin) sıralanmasında dplyr::arrange() fonksiyonu kullanılabilir.

Örnek: gapminder veri setini yıla göre sırala.

arrange(gapminder, year)

## # A tibble: 1,704 × 6
##    country     continent  year lifeExp      pop gdpPercap
##    <fct>       <fct>     <int>   <dbl>    <int>     <dbl>
##  1 Afghanistan Asia       1952    28.8  8425333      779.
##  2 Albania     Europe     1952    55.2  1282697     1601.
##  3 Algeria     Africa     1952    43.1  9279525     2449.
##  4 Angola      Africa     1952    30.0  4232095     3521.
##  5 Argentina   Americas   1952    62.5 17876956     5911.
##  6 Australia   Oceania    1952    69.1  8691212    10040.
##  7 Austria     Europe     1952    66.8  6927772     6137.
##  8 Bahrain     Asia       1952    50.9   120447     9867.
##  9 Bangladesh  Asia       1952    37.5 46886859      684.
## 10 Belgium     Europe     1952    68    8730405     8343.
## # ℹ 1,694 more rows

Default olarak küçükten büyüğe sıraladı. Büyükten küçüğe sıralamak istersek:

arrange(gapminder, desc(year))

## # A tibble: 1,704 × 6
##    country     continent  year lifeExp       pop gdpPercap
##    <fct>       <fct>     <int>   <dbl>     <int>     <dbl>
##  1 Afghanistan Asia       2007    43.8  31889923      975.
##  2 Albania     Europe     2007    76.4   3600523     5937.
##  3 Algeria     Africa     2007    72.3  33333216     6223.
##  4 Angola      Africa     2007    42.7  12420476     4797.
##  5 Argentina   Americas   2007    75.3  40301927    12779.
##  6 Australia   Oceania    2007    81.2  20434176    34435.
##  7 Austria     Europe     2007    79.8   8199783    36126.
##  8 Bahrain     Asia       2007    75.6    708573    29796.
##  9 Bangladesh  Asia       2007    64.1 150448339     1391.
## 10 Belgium     Europe     2007    79.4  10392226    33693.
## # ℹ 1,694 more rows

Örnek: Yılı artan, ülkeleri alfabetik olacak şekilde satırları yeniden düzenle:

arrange(gapminder, year, country) 

## # A tibble: 1,704 × 6
##    country     continent  year lifeExp      pop gdpPercap
##    <fct>       <fct>     <int>   <dbl>    <int>     <dbl>
##  1 Afghanistan Asia       1952    28.8  8425333      779.
##  2 Albania     Europe     1952    55.2  1282697     1601.
##  3 Algeria     Africa     1952    43.1  9279525     2449.
##  4 Angola      Africa     1952    30.0  4232095     3521.
##  5 Argentina   Americas   1952    62.5 17876956     5911.
##  6 Australia   Oceania    1952    69.1  8691212    10040.
##  7 Austria     Europe     1952    66.8  6927772     6137.
##  8 Bahrain     Asia       1952    50.9   120447     9867.
##  9 Bangladesh  Asia       1952    37.5 46886859      684.
## 10 Belgium     Europe     1952    68    8730405     8343.
## # ℹ 1,694 more rows

Örnek: Ülkeler alfabetik, yıl artan:

arrange(gapminder, country, year) 

## # A tibble: 1,704 × 6
##    country     continent  year lifeExp      pop gdpPercap
##    <fct>       <fct>     <int>   <dbl>    <int>     <dbl>
##  1 Afghanistan Asia       1952    28.8  8425333      779.
##  2 Afghanistan Asia       1957    30.3  9240934      821.
##  3 Afghanistan Asia       1962    32.0 10267083      853.
##  4 Afghanistan Asia       1967    34.0 11537966      836.
##  5 Afghanistan Asia       1972    36.1 13079460      740.
##  6 Afghanistan Asia       1977    38.4 14880372      786.
##  7 Afghanistan Asia       1982    39.9 12881816      978.
##  8 Afghanistan Asia       1987    40.8 13867957      852.
##  9 Afghanistan Asia       1992    41.7 16317921      649.
## 10 Afghanistan Asia       1997    41.8 22227415      635.
## # ℹ 1,694 more rows

filter() ve arrange() birlikte kullanılabilir. Örneğin:

gapminder |>  
  filter(year==2007, continent=="Americas") |> 
  arrange(lifeExp) 

## # A tibble: 25 × 6
##    country             continent  year lifeExp       pop gdpPercap
##    <fct>               <fct>     <int>   <dbl>     <int>     <dbl>
##  1 Haiti               Americas   2007    60.9   8502814     1202.
##  2 Bolivia             Americas   2007    65.6   9119152     3822.
##  3 Trinidad and Tobago Americas   2007    69.8   1056608    18009.
##  4 Honduras            Americas   2007    70.2   7483763     3548.
##  5 Guatemala           Americas   2007    70.3  12572928     5186.
##  6 Peru                Americas   2007    71.4  28674757     7409.
##  7 Paraguay            Americas   2007    71.8   6667147     4173.
##  8 El Salvador         Americas   2007    71.9   6939688     5728.
##  9 Dominican Republic  Americas   2007    72.2   9319622     6025.
## 10 Brazil              Americas   2007    72.4 190010647     9066.
## # ℹ 15 more rows

Örnek: 2007 yılında Avrupa kıtasındaki ülkelerde yaşam beklentisini büyükten küçüğe sıralayınız.

gapminder |>  
  filter(year==2007, continent=="Europe") |>  
  arrange(desc(lifeExp)) 

## # A tibble: 30 × 6
##    country     continent  year lifeExp      pop gdpPercap
##    <fct>       <fct>     <int>   <dbl>    <int>     <dbl>
##  1 Iceland     Europe     2007    81.8   301931    36181.
##  2 Switzerland Europe     2007    81.7  7554661    37506.
##  3 Spain       Europe     2007    80.9 40448191    28821.
##  4 Sweden      Europe     2007    80.9  9031088    33860.
##  5 France      Europe     2007    80.7 61083916    30470.
##  6 Italy       Europe     2007    80.5 58147733    28570.
##  7 Norway      Europe     2007    80.2  4627926    49357.
##  8 Austria     Europe     2007    79.8  8199783    36126.
##  9 Netherlands Europe     2007    79.8 16570613    36798.
## 10 Greece      Europe     2007    79.5 10706290    27538.
## # ℹ 20 more rows

2.4.5 group_by(): verilerin gruplanması

Verilerin gruplandırılması amacıyla kullanılır.

Verilerin görünümünü değiştirmez.

summarize() gibi diğer fonksiyonlarla birlikte kullanılabilir.

gapminder |>  
  group_by(continent, year)  

## # A tibble: 1,704 × 6
## # Groups:   continent, year [60]
##    country     continent  year lifeExp      pop gdpPercap
##    <fct>       <fct>     <int>   <dbl>    <int>     <dbl>
##  1 Afghanistan Asia       1952    28.8  8425333      779.
##  2 Afghanistan Asia       1957    30.3  9240934      821.
##  3 Afghanistan Asia       1962    32.0 10267083      853.
##  4 Afghanistan Asia       1967    34.0 11537966      836.
##  5 Afghanistan Asia       1972    36.1 13079460      740.
##  6 Afghanistan Asia       1977    38.4 14880372      786.
##  7 Afghanistan Asia       1982    39.9 12881816      978.
##  8 Afghanistan Asia       1987    40.8 13867957      852.
##  9 Afghanistan Asia       1992    41.7 16317921      649.
## 10 Afghanistan Asia       1997    41.8 22227415      635.
## # ℹ 1,694 more rows

gapminder |>   
  group_by(continent, year) |> 
  arrange(year)

## # A tibble: 1,704 × 6
## # Groups:   continent, year [60]
##    country     continent  year lifeExp      pop gdpPercap
##    <fct>       <fct>     <int>   <dbl>    <int>     <dbl>
##  1 Afghanistan Asia       1952    28.8  8425333      779.
##  2 Albania     Europe     1952    55.2  1282697     1601.
##  3 Algeria     Africa     1952    43.1  9279525     2449.
##  4 Angola      Africa     1952    30.0  4232095     3521.
##  5 Argentina   Americas   1952    62.5 17876956     5911.
##  6 Australia   Oceania    1952    69.1  8691212    10040.
##  7 Austria     Europe     1952    66.8  6927772     6137.
##  8 Bahrain     Asia       1952    50.9   120447     9867.
##  9 Bangladesh  Asia       1952    37.5 46886859      684.
## 10 Belgium     Europe     1952    68    8730405     8343.
## # ℹ 1,694 more rows
…
mutate() ve group_by() fonksiyonlarının birlikte kullanılabilir:

Örnek: Her ülke için kişi başına GDP değişkeninin başlangıç yılındaki değerine oranını gösteren yeni bir değişken oluşturunuz. Yeni değişken başlangıç yılı olan 1952’de 1 değerini almalı, diğer yıllar için başlangıç yılına göre (1+büyüme oranı) olmalı.

gapminder |>  
  group_by(country) |>
  select(country, year, gdpPercap) |> 
  mutate(gdppc_to_first = gdpPercap/first(gdpPercap))

## # A tibble: 1,704 × 4
## # Groups:   country [142]
##    country      year gdpPercap gdppc_to_first
##    <fct>       <int>     <dbl>          <dbl>
##  1 Afghanistan  1952      779.          1    
##  2 Afghanistan  1957      821.          1.05 
##  3 Afghanistan  1962      853.          1.09 
##  4 Afghanistan  1967      836.          1.07 
##  5 Afghanistan  1972      740.          0.949
##  6 Afghanistan  1977      786.          1.01 
##  7 Afghanistan  1982      978.          1.25 
##  8 Afghanistan  1987      852.          1.09 
##  9 Afghanistan  1992      649.          0.833
## 10 Afghanistan  1997      635.          0.815
## # ℹ 1,694 more rows

Örnek: Yıldan yıla büyüme oranlarını yüzde olarak gösteren yeni bir değişken oluşturunuz.

gapminder |>  
  group_by(country) |>
  select(country, year, gdpPercap) |> 
  mutate(gdppc_growth = 100*(gdpPercap-lag(gdpPercap))/lag(gdpPercap))

## # A tibble: 1,704 × 4
## # Groups:   country [142]
##    country      year gdpPercap gdppc_growth
##    <fct>       <int>     <dbl>        <dbl>
##  1 Afghanistan  1952      779.        NA   
##  2 Afghanistan  1957      821.         5.31
##  3 Afghanistan  1962      853.         3.93
##  4 Afghanistan  1967      836.        -1.98
##  5 Afghanistan  1972      740.       -11.5 
##  6 Afghanistan  1977      786.         6.23
##  7 Afghanistan  1982      978.        24.4 
##  8 Afghanistan  1987      852.       -12.8 
##  9 Afghanistan  1992      649.       -23.8 
## 10 Afghanistan  1997      635.        -2.16
## # ℹ 1,694 more rows

Örnekte kullanılan lag() fonksiyonu bir önceki dönemdeki (yılda) değere eşit olan birinci gecikmedir. Gecikmeyi açıkça veri setine ekleyelim:

gapminder |>  
  group_by(country) |>
  select(country, year, gdpPercap) |> 
  mutate(lag_gdppc = lag(gdpPercap, 1, order_by = year), 
         gdppc_growth = 100*(gdpPercap-lag_gdppc)/lag_gdppc)

## # A tibble: 1,704 × 5
## # Groups:   country [142]
##    country      year gdpPercap lag_gdppc gdppc_growth
##    <fct>       <int>     <dbl>     <dbl>        <dbl>
##  1 Afghanistan  1952      779.       NA         NA   
##  2 Afghanistan  1957      821.      779.         5.31
##  3 Afghanistan  1962      853.      821.         3.93
##  4 Afghanistan  1967      836.      853.        -1.98
##  5 Afghanistan  1972      740.      836.       -11.5 
##  6 Afghanistan  1977      786.      740.         6.23
##  7 Afghanistan  1982      978.      786.        24.4 
##  8 Afghanistan  1987      852.      978.       -12.8 
##  9 Afghanistan  1992      649.      852.       -23.8 
## 10 Afghanistan  1997      635.      649.        -2.16
## # ℹ 1,694 more rows

Yukarıda pipe operatörünü kullandık. Bunu kullanmadan aynı kodu çalıştırmak istersek:

mutate(select(group_by(gapminder,country), country, year, gdpPercap), gdppc_growth = 100*(gdpPercap-lag(gdpPercap))/lag(gdpPercap))

## # A tibble: 1,704 × 4
## # Groups:   country [142]
##    country      year gdpPercap gdppc_growth
##    <fct>       <int>     <dbl>        <dbl>
##  1 Afghanistan  1952      779.        NA   
##  2 Afghanistan  1957      821.         5.31
##  3 Afghanistan  1962      853.         3.93
##  4 Afghanistan  1967      836.        -1.98
##  5 Afghanistan  1972      740.       -11.5 
##  6 Afghanistan  1977      786.         6.23
##  7 Afghanistan  1982      978.        24.4 
##  8 Afghanistan  1987      852.       -12.8 
##  9 Afghanistan  1992      649.       -23.8 
## 10 Afghanistan  1997      635.        -2.16
## # ℹ 1,694 more rows
…
Daha sonra min_rank() ile yaşam beklentisini küçükten büyüğe doğru sıralayalım ve yeni bir değişken yaratarak sıralamaları kaydedelim. En düşük yaşam beklentisine sahip ilk iki ülkeyi listeleyelim:

europe |> 
  group_by(year) |> 
  mutate(le_rank = min_rank(lifeExp)) |> 
  filter(le_rank < 3) |> 
  arrange(year)

## # A tibble: 24 × 4
## # Groups:   year [12]
##     year country                lifeExp le_rank
##    <int> <fct>                    <dbl>   <int>
##  1  1952 Bosnia and Herzegovina    53.8       2
##  2  1952 Turkey                    43.6       1
##  3  1957 Bosnia and Herzegovina    58.4       2
##  4  1957 Turkey                    48.1       1
##  5  1962 Bosnia and Herzegovina    61.9       2
##  6  1962 Turkey                    52.1       1
##  7  1967 Bosnia and Herzegovina    64.8       2
##  8  1967 Turkey                    54.3       1
##  9  1972 Bosnia and Herzegovina    67.4       2
## 10  1972 Turkey                    57.0       1
## # ℹ 14 more rows

Aynısını en yüksek yaşam beklentisi için yapalım:

europe |> group_by(year) |> 
  mutate(le_desc_rank = min_rank(desc(lifeExp))) |> 
  filter(le_desc_rank < 3) |> 
  arrange(year)

## # A tibble: 24 × 4
## # Groups:   year [12]
##     year country lifeExp le_desc_rank
##    <int> <fct>     <dbl>        <int>
##  1  1952 Iceland    72.5            2
##  2  1952 Norway     72.7            1
##  3  1957 Iceland    73.5            1
##  4  1957 Norway     73.4            2
##  5  1962 Iceland    73.7            1
##  6  1962 Norway     73.5            2
##  7  1967 Norway     74.1            2
##  8  1967 Sweden     74.2            1
##  9  1972 Iceland    74.5            2
## 10  1972 Sweden     74.7            1
## # ℹ 14 more rows
…
