4.2 R’da Zaman Serilerinin Temsili | R ile Ekonometri
…
## year

key(tsdata2)

## [[1]]
## province

Örnek: Ülke veri seti (tsibbledata paketinden)

library(tsibbledata)
data("global_economy")
global_economy

## # A tsibble: 15,150 x 9 [1Y]
## # Key:       Country [263]
##    Country     Code   Year         GDP Growth   CPI Imports Exports Population
##    <fct>       <fct> <dbl>       <dbl>  <dbl> <dbl>   <dbl>   <dbl>      <dbl>
##  1 Afghanistan AFG    1960  537777811.     NA    NA    7.02    4.13    8996351
##  2 Afghanistan AFG    1961  548888896.     NA    NA    8.10    4.45    9166764
##  3 Afghanistan AFG    1962  546666678.     NA    NA    9.35    4.88    9345868
##  4 Afghanistan AFG    1963  751111191.     NA    NA   16.9     9.17    9533954
##  5 Afghanistan AFG    1964  800000044.     NA    NA   18.1     8.89    9731361
##  6 Afghanistan AFG    1965 1006666638.     NA    NA   21.4    11.3     9938414
##  7 Afghanistan AFG    1966 1399999967.     NA    NA   18.6     8.57   10152331
##  8 Afghanistan AFG    1967 1673333418.     NA    NA   14.2     6.77   10372630
##  9 Afghanistan AFG    1968 1373333367.     NA    NA   15.2     8.90   10604346
## 10 Afghanistan AFG    1969 1408888922.     NA    NA   15.0    10.1    10854428
## # ℹ 15,140 more rows
…
# convert sample_matrix into tibble and create a date variable
df1 <- tibble(date = rownames(sample_matrix), 
              close = sample_matrix[,4]
              )
df1 <- df1 %>% 
  mutate(date = lubridate::ymd(date))
df1

## # A tibble: 180 × 2
##    date       close
##    <date>     <dbl>
##  1 2007-01-02  50.1
##  2 2007-01-03  50.4
##  3 2007-01-04  50.3
##  4 2007-01-05  50.3
##  5 2007-01-06  50.2
##  6 2007-01-07  50.0
##  7 2007-01-08  50.0
##  8 2007-01-09  49.9
##  9 2007-01-10  50.0
## 10 2007-01-11  50.2
## # ℹ 170 more rows

tsibble_daily <- as_tsibble(df1, index = date)
tsibble_daily

## # A tsibble: 180 x 2 [1D]
##    date       close
##    <date>     <dbl>
##  1 2007-01-02  50.1
##  2 2007-01-03  50.4
##  3 2007-01-04  50.3
##  4 2007-01-05  50.3
##  5 2007-01-06  50.2
##  6 2007-01-07  50.0
##  7 2007-01-08  50.0
##  8 2007-01-09  49.9
##  9 2007-01-10  50.0
## 10 2007-01-11  50.2
## # ℹ 170 more rows

Günlük verilerden oluşan bu veri setinden hareketle aylık ortalamaları hesaplayarak yeni bir veri seti oluşturalım.

Bunun için önce tsibble::yearmonth() fonksiyonunu kullanarak year_month isminde yeni bir değişken oluşturalım. Bu değişkeni gruplamada kullanacağız.

tsibble_monthly <- tsibble_daily %>% 
  mutate(year_month = yearmonth(date))
tsibble_monthly

## # A tsibble: 180 x 3 [1D]
##    date       close year_month
##    <date>     <dbl>      <mth>
##  1 2007-01-02  50.1   2007 Jan
##  2 2007-01-03  50.4   2007 Jan
##  3 2007-01-04  50.3   2007 Jan
##  4 2007-01-05  50.3   2007 Jan
##  5 2007-01-06  50.2   2007 Jan
##  6 2007-01-07  50.0   2007 Jan
##  7 2007-01-08  50.0   2007 Jan
##  8 2007-01-09  49.9   2007 Jan
##  9 2007-01-10  50.0   2007 Jan
## 10 2007-01-11  50.2   2007 Jan
## # ℹ 170 more rows
…
